[gd_scene load_steps=5 format=2]

[ext_resource path="res://scripts/npc.gd" type="Script" id=1]

[sub_resource type="BoxShape" id=1]

[sub_resource type="SpatialMaterial" id=3]

[sub_resource type="CubeMesh" id=2]

[node name="npc" type="RigidBody"]
transform = Transform( 1, 0, 0, 0, 1, 0, 0, 0, 1, 0, -1, 0 )
contacts_reported = 10
contact_monitor = true
script = ExtResource( 1 )

[node name="CollisionShape" type="CollisionShape" parent="."]
transform = Transform( 1, 0, 0, 0, 1, 0, 0, 0, 1, 0, 1, 0 )
shape = SubResource( 1 )

[node name="MeshInstance" type="MeshInstance" parent="."]
transform = Transform( 1, 0, 0, 0, 1, 0, 0, 0, 1, 0, 1, 0 )
material_override = SubResource( 3 )
mesh = SubResource( 2 )
material/0 = null

[connection signal="body_entered" from="." to="." method="_on_npc_body_entered"]
